<svg width="66" height="65" viewBox="0 0 66 65" fill="none" xmlns="http://www.w3.org/2000/svg">
<g clip-path="url(#clip0)">
<path d="M44.3144 22.2765H38.6001C37.9689 22.2765 37.4572 22.7882 37.4572 23.4193V29.1336C37.4572 29.7648 37.9689 30.2765 38.6001 30.2765H44.3144C44.9455 30.2765 45.4572 29.7648 45.4572 29.1336V23.4193C45.4572 22.7882 44.9455 22.2765 44.3144 22.2765Z" fill="#FC9D3E"/>
<path d="M44.3144 37.1337H38.6001C37.9689 37.1337 37.4572 37.6453 37.4572 38.2765V43.9908C37.4572 44.622 37.9689 45.1337 38.6001 45.1337H44.3144C44.9455 45.1337 45.4572 44.622 45.4572 43.9908V38.2765C45.4572 37.6453 44.9455 37.1337 44.3144 37.1337Z" fill="#FC9D3E"/>
<path d="M29.4572 57.6663C26.0469 59.4377 19.5429 59.9908 15.1715 59.9908C14.1806 59.9908 13.2023 59.968 12.2583 59.9211C11.6272 59.8896 11.1411 59.3523 11.1726 58.7211C11.2042 58.0899 11.7414 57.6038 12.3726 57.6354C13.2801 57.68 14.2218 57.7028 15.1738 57.7028C23.9349 57.7028 29.2058 55.8057 29.4595 54.8308V50.8023C28.0805 51.4631 26.6203 51.9389 25.1166 52.2171C25.0408 52.2336 24.9634 52.242 24.8858 52.2423C24.3008 52.24 23.8119 51.7964 23.7531 51.2143C23.6943 50.6323 24.0845 50.0998 24.6572 49.9805C28.4286 49.1897 29.4069 48.1988 29.4641 47.9783V43.9531C26.0458 45.7234 19.5429 46.2765 15.1715 46.2765C14.1806 46.2765 13.2023 46.2537 12.2583 46.2068C11.6272 46.1753 11.1411 45.638 11.1726 45.0068C11.2042 44.3756 11.7414 43.8896 12.3726 43.9211C13.2801 43.9657 14.2218 43.9885 15.1738 43.9885C23.9315 43.9885 29.2012 42.0937 29.4595 41.1177V37.088C28.0807 37.7493 26.6204 38.225 25.1166 38.5028C25.0408 38.5193 24.9634 38.5277 24.8858 38.528C24.3008 38.5257 23.8119 38.0821 23.7531 37.5C23.6943 36.918 24.0845 36.3855 24.6572 36.2663C28.4206 35.4765 29.4035 34.4891 29.4572 34.2651V30.2388C26.0446 32.0091 19.5418 32.5623 15.1715 32.5623C14.1806 32.5623 13.2023 32.5394 12.2583 32.4925C11.6272 32.461 11.1411 31.9237 11.1726 31.2925C11.2042 30.6614 11.7414 30.1753 12.3726 30.2068C13.2801 30.2514 14.2218 30.2743 15.1738 30.2743C23.9372 30.2743 29.2081 28.3771 29.4595 27.4011C29.2058 26.4594 23.9349 24.5623 15.1715 24.5623C6.40806 24.5623 1.14863 26.456 0.885773 27.432V27.4388C0.963487 27.6754 2.17606 28.8103 6.79549 29.6194C7.41878 29.7273 7.83656 30.3201 7.72863 30.9434C7.6207 31.5667 7.02792 31.9845 6.40463 31.8765C4.49439 31.6029 2.63484 31.0495 0.885773 30.2343V34.2663C1.15549 35.2434 6.42406 37.1337 15.1715 37.1337C16.5246 37.1337 17.8423 37.088 19.0903 37C19.5049 36.9576 19.9097 37.1442 20.1466 37.4869C20.3836 37.8297 20.4153 38.2742 20.2293 38.6471C20.0432 39.02 19.669 39.2621 19.2526 39.2788C17.9521 39.3725 16.5783 39.4194 15.1715 39.4194C10.8012 39.4194 4.29834 38.8663 0.885773 37.096V41.1234C0.969201 41.3954 2.18749 42.5325 6.79549 43.3337C7.37908 43.4359 7.78778 43.9672 7.73693 44.5575C7.68608 45.1478 7.19254 45.6013 6.60006 45.6023C6.53422 45.602 6.4685 45.5966 6.40349 45.5863C4.49388 45.3139 2.63473 44.7621 0.885773 43.9485V47.9805C1.15549 48.9577 6.42406 50.848 15.1715 50.848C16.5246 50.848 17.8423 50.8023 19.0903 50.7143C19.5049 50.6719 19.9097 50.8584 20.1466 51.2012C20.3836 51.5439 20.4153 51.9885 20.2293 52.3614C20.0432 52.7343 19.669 52.9763 19.2526 52.9931C17.9521 53.0868 16.5783 53.1337 15.1715 53.1337C10.8012 53.1337 4.29834 52.5805 0.885773 50.8103V54.8377C0.969201 55.1097 2.18749 56.2468 6.79549 57.048C7.37908 57.1502 7.78778 57.6815 7.73693 58.2718C7.68608 58.8621 7.19254 59.3156 6.60006 59.3165C6.53422 59.3163 6.4685 59.3109 6.40349 59.3005C4.49388 59.0282 2.63473 58.4764 0.885773 57.6628V61.7051C1.1372 62.6651 6.40806 64.5623 15.1715 64.5623C23.9349 64.5623 29.2058 62.6651 29.4572 61.6891V57.6663Z" fill="#FC9D3E"/>
<path d="M59.1715 22.2765H53.4572C52.826 22.2765 52.3144 22.7882 52.3144 23.4193V29.1336C52.3144 29.7648 52.826 30.2765 53.4572 30.2765H59.1715C59.8027 30.2765 60.3144 29.7648 60.3144 29.1336V23.4193C60.3144 22.7882 59.8027 22.2765 59.1715 22.2765Z" fill="#FC9D3E"/>
<path d="M59.1715 51.9908H38.6001C37.9689 51.9908 37.4572 52.5025 37.4572 53.1337V58.848C37.4572 59.4792 37.9689 59.9908 38.6001 59.9908H59.1715C59.8027 59.9908 60.3144 59.4792 60.3144 58.848V53.1337C60.3144 52.5025 59.8027 51.9908 59.1715 51.9908Z" fill="#FC9D3E"/>
<path d="M59.1715 37.1337H53.4572C52.826 37.1337 52.3144 37.6453 52.3144 38.2765V43.9908C52.3144 44.622 52.826 45.1337 53.4572 45.1337H59.1715C59.8027 45.1337 60.3144 44.622 60.3144 43.9908V38.2765C60.3144 37.6453 59.8027 37.1337 59.1715 37.1337Z" fill="#FC9D3E"/>
<path d="M51.0812 14.2765H59.1715C59.8026 14.2765 60.3143 13.7648 60.3143 13.1336V6.27646C60.3143 5.64528 59.8026 5.13361 59.1715 5.13361H57.4812L51.0812 14.2765Z" fill="#FC9D3E"/>
<path d="M22.6001 6.27646V13.1336C22.6001 13.7648 23.1118 14.2765 23.743 14.2765H41.4332L47.8332 5.13361H23.743C23.1118 5.13361 22.6001 5.64528 22.6001 6.27646Z" fill="#FC9D3E"/>
<path d="M62.6001 0.562256H20.3143C19.052 0.562256 18.0286 1.58561 18.0286 2.84797V22.352C24.0915 22.6491 31.7429 23.9394 31.7429 27.4194V61.7051C31.7429 62.9017 30.8286 63.8343 29.3875 64.5623H62.6001C63.8624 64.5623 64.8858 63.5389 64.8858 62.2765V2.84797C64.8858 1.58561 63.8624 0.562256 62.6001 0.562256ZM62.6001 58.848C62.6001 60.7415 61.065 62.2765 59.1715 62.2765H38.6001C36.7065 62.2765 35.1715 60.7415 35.1715 58.848V53.1337C35.1715 51.2401 36.7065 49.7051 38.6001 49.7051H59.1715C61.065 49.7051 62.6001 51.2401 62.6001 53.1337V58.848ZM38.6001 34.848H44.3143C46.2079 34.848 47.7429 36.383 47.7429 38.2765V43.9908C47.7429 45.8844 46.2079 47.4194 44.3143 47.4194H38.6001C36.7065 47.4194 35.1715 45.8844 35.1715 43.9908V38.2765C35.1715 36.383 36.7065 34.848 38.6001 34.848ZM35.1715 29.1337V23.4194C35.1715 21.5259 36.7065 19.9908 38.6001 19.9908H44.3143C46.2079 19.9908 47.7429 21.5259 47.7429 23.4194V29.1337C47.7429 31.0272 46.2079 32.5623 44.3143 32.5623H38.6001C36.7065 32.5623 35.1715 31.0272 35.1715 29.1337ZM62.6001 43.9908C62.6001 45.8844 61.065 47.4194 59.1715 47.4194H53.4572C51.5636 47.4194 50.0286 45.8844 50.0286 43.9908V38.2765C50.0286 36.383 51.5636 34.848 53.4572 34.848H59.1715C61.065 34.848 62.6001 36.383 62.6001 38.2765V43.9908ZM62.6001 29.1337C62.6001 31.0272 61.065 32.5623 59.1715 32.5623H53.4572C51.5636 32.5623 50.0286 31.0272 50.0286 29.1337V23.4194C50.0286 21.5259 51.5636 19.9908 53.4572 19.9908H59.1715C61.065 19.9908 62.6001 21.5259 62.6001 23.4194V29.1337ZM62.6001 14.2765C62.6001 15.5389 61.5767 16.5623 60.3143 16.5623H22.6001C21.3377 16.5623 20.3143 15.5389 20.3143 14.2765V5.13368C20.3143 3.87132 21.3377 2.84797 22.6001 2.84797H60.3143C61.5767 2.84797 62.6001 3.87132 62.6001 5.13368V14.2765Z" fill="#FC9D3E"/>
</g>
<defs>
<clipPath id="clip0">
<rect x="0.435547" y="0.562256" width="65" height="64" fill="white"/>
</clipPath>
</defs>
</svg>
