<svg width="65" height="54" viewBox="0 0 65 54" fill="none" xmlns="http://www.w3.org/2000/svg">
<path d="M0.885742 31.7496V53.8645H31.0107V31.7496H0.885742ZM25.3857 48.3358H6.51074V44.65H25.3857V48.3358ZM6.51074 40.9642V37.2784H25.3857V40.9642H6.51074Z" fill="#FC9D3E"/>
<path d="M34.7609 31.7496H64.8859V53.8645H34.7609V31.7496Z" fill="#FC9D3E"/>
<path d="M64.8857 0.174255H0.885742V11.2317H64.8857V0.174255ZM8.38574 7.54589H4.63574V3.86007H8.38574V7.54589ZM12.1357 7.54589V3.86007H15.8857V7.54589H12.1357Z" fill="#FC9D3E"/>
<path d="M0.885742 14.9177H64.8857V28.0638H0.885742V14.9177Z" fill="#FC9D3E"/>
</svg>
