<svg width="158" height="18" viewBox="0 0 158 18" fill="none" xmlns="http://www.w3.org/2000/svg">
<path d="M10.8471 8.23149C11.4917 8.83778 11.9412 9.43362 12.206 10.0155C12.4708 10.6009 12.5998 11.2699 12.5998 12.0435C12.5998 13.4477 12.0667 14.6394 10.9969 15.6116C10.7391 15.8555 10.4917 16.0506 10.2513 16.2039C10.0073 16.3537 9.72859 16.4722 9.44983 16.5593C9.17107 16.6464 8.82263 16.7092 8.47418 16.7405C8.09089 16.7754 7.67276 16.7893 7.15009 16.7893H2.96875C2.37639 16.7893 1.92342 16.737 1.60982 16.6325C1.29622 16.528 0.982615 16.2841 0.703859 15.9705C0.543574 15.7962 0.407681 15.5941 0.296178 15.3781C0.184676 15.1621 0.108018 14.96 0.0522667 14.7509C0.0383289 14.6464 0.0278756 14.514 0.0174222 14.3432C0.00696889 14.1794 0 13.8415 0 13.3327V3.51006C0.0069689 2.70864 0.278756 2.05356 0.773548 1.55877C1.29622 1.05004 1.93039 0.792188 2.72484 0.792188H4.97579C5.40787 0.792188 5.77025 0.802642 6.06643 0.80961C6.34518 0.80961 6.58909 0.823548 6.83301 0.844455C7.04207 0.858393 7.2163 0.8793 7.39052 0.900206C7.56474 0.924597 7.70412 0.952473 7.87834 0.983833C8.96898 1.25562 9.86448 1.82707 10.5614 2.69818C11.2234 3.56929 11.5719 4.59372 11.5719 5.77495C11.5719 6.23838 11.5126 6.6391 11.4081 6.9736C11.3036 7.30811 11.1015 7.72624 10.8157 8.22104L10.8471 8.23149ZM5.24061 6.98057H5.86781C6.2302 6.98057 6.48456 6.9283 6.63439 6.84119C6.77377 6.7506 6.84346 6.59728 6.84346 6.37079C6.84346 6.1443 6.76332 5.9875 6.60652 5.88994C6.44623 5.79237 6.18838 5.75056 5.81555 5.75056H5.25804V6.97012L5.24061 6.98057ZM5.24061 11.8588H6.12566C6.5891 11.8588 6.89224 11.817 7.04904 11.7299C7.20584 11.6428 7.27205 11.4755 7.27205 11.2421C7.27205 10.9981 7.18145 10.8239 6.99329 10.7194C6.80513 10.6149 6.52638 10.573 6.10824 10.573H5.27197V11.8727L5.24061 11.8588ZM57.8558 2.08143C58.0649 1.6633 58.3785 1.32531 58.7966 1.06049C59.2147 0.806126 59.6677 0.666748 60.1695 0.666748C60.4831 0.666748 60.8176 0.736437 61.1556 0.858393C61.4936 0.987317 61.7723 1.16154 61.9919 1.38106C62.2218 1.61103 62.3926 1.84798 62.5145 2.10583C62.64 2.36368 62.7375 2.70864 62.8177 3.14071L64.6296 13.4407C64.6644 13.615 64.6888 13.7787 64.6993 13.9216C64.7097 14.0645 64.7341 14.2003 64.7341 14.3397C64.7341 14.7091 64.6644 15.0471 64.525 15.3572C64.3926 15.6708 64.2114 15.9426 63.978 16.1586C63.748 16.3886 63.4727 16.5698 63.1557 16.7057C62.8386 16.8416 62.5006 16.9008 62.1452 16.9008C61.4762 16.9008 60.9012 16.7161 60.4204 16.3503C59.9325 15.9809 59.6538 15.4931 59.5283 14.8868L58.9221 11.8902L57.8941 14.7126C57.3715 16.1691 56.4655 16.8973 55.1902 16.8973C54.5282 16.8973 53.9881 16.7231 53.5525 16.3816C53.1239 16.0332 52.772 15.4861 52.5002 14.7439L51.4549 11.8867L51.0228 14.4303C50.8939 15.1969 50.5942 15.7962 50.1238 16.2422C49.636 16.6743 49.0506 16.8938 48.3816 16.8938C47.5802 16.8938 46.953 16.6255 46.4651 16.0924C45.9529 15.5558 45.6986 14.8659 45.6986 14.0192C45.6986 13.9007 45.709 13.7927 45.716 13.6916C45.716 13.5871 45.7369 13.4826 45.7508 13.3641L47.5906 3.15464C47.7195 2.38807 48.0088 1.77829 48.4617 1.34273C48.9217 0.900206 49.4931 0.680686 50.1796 0.680686C50.7371 0.680686 51.2597 0.840971 51.7476 1.15806C52.2354 1.47166 52.5943 1.90721 52.8208 2.4473L55.1902 7.74367L57.8523 2.06401" fill="#414042"/>
<path d="M71.3618 17.1931C70.5151 17.1931 69.7241 17.0886 68.9924 16.8795C68.2537 16.6774 67.6125 16.3917 67.069 16.0223C66.5254 15.653 66.1038 15.2209 65.8006 14.7331C65.5219 14.2522 65.3477 13.7226 65.3477 13.1442C65.3477 12.8096 65.4173 12.496 65.5567 12.2103C65.6752 11.9211 65.8355 11.6702 66.0585 11.4542C66.2676 11.2382 66.5289 11.0709 66.8251 10.9385C67.1212 10.8096 67.4383 10.7469 67.7659 10.7469C68.0795 10.7469 68.3931 10.8061 68.6927 10.928C68.9854 11.0465 69.299 11.2416 69.6335 11.5134L70.3304 12.0431C70.5046 12.1685 70.651 12.2696 70.7625 12.3427C70.867 12.4124 70.9716 12.4577 71.0412 12.4717C71.1249 12.4891 71.2155 12.496 71.3095 12.496C71.5186 12.496 71.6928 12.4333 71.7974 12.3044C71.9263 12.179 71.989 12.0082 71.989 11.8026C71.989 11.5309 71.8496 11.3078 71.5709 11.1301C71.536 11.1162 71.5012 11.0953 71.4663 11.0709L71.2921 10.9873L71.0134 10.8479L70.5255 10.6388L69.8635 10.4123C69.6544 10.3427 69.4454 10.273 69.2189 10.1859C66.8982 9.37049 65.7344 7.85128 65.7344 5.63168C65.7344 4.8442 65.8738 4.13337 66.1665 3.49571C66.4592 2.85806 66.8564 2.311 67.3686 1.84408C67.8809 1.37717 68.4906 1.01827 69.2154 0.763905C69.9471 0.506055 70.7486 0.380615 71.6127 0.380615C72.3305 0.380615 73.0065 0.471211 73.6232 0.659371C74.2504 0.833594 74.7905 1.08447 75.2539 1.39807C75.7209 1.71167 76.0832 2.07406 76.3481 2.49568C76.6094 2.91381 76.7383 3.37724 76.7383 3.87203C76.7383 4.50969 76.5362 5.03236 76.1529 5.44004C75.7696 5.84772 75.2749 6.0533 74.6686 6.0533C74.2957 6.0533 73.9542 5.98361 73.6337 5.84423C73.3201 5.71182 72.9368 5.47837 72.4838 5.14734C72.2155 4.92085 71.996 4.77102 71.8392 4.69436C71.6754 4.61074 71.5256 4.56892 71.3862 4.56892C71.212 4.56892 71.0587 4.62468 70.9332 4.74315C70.8182 4.8651 70.759 5.01493 70.759 5.18916C70.759 5.43307 70.8635 5.62123 71.0726 5.76409C71.2956 5.90347 71.7172 6.07769 72.3409 6.28676C73.0274 6.49582 73.6755 6.73974 74.2818 7.05334C74.8881 7.34603 75.3759 7.65266 75.7453 7.97323C76.24 8.39137 76.6303 8.92449 76.9195 9.58653C77.1983 10.2486 77.3446 10.9664 77.3446 11.733C77.3446 12.4507 77.2122 13.1442 76.9509 13.8062C76.6826 14.4682 76.3132 15.0501 75.8359 15.5484C75.2888 16.092 74.6511 16.4892 73.9264 16.7575C73.1946 17.0258 72.3409 17.1582 71.3479 17.1582L71.3618 17.1931ZM80.85 5.67698C80.3831 5.67698 79.9963 5.62471 79.6827 5.50276C79.3691 5.39822 79.1008 5.224 78.8604 4.98009C78.3725 4.45742 78.1286 3.86506 78.1286 3.23786C78.1286 2.77095 78.261 2.33191 78.5224 1.91377C78.7907 1.49564 79.1147 1.20643 79.498 1.02872C79.6374 0.972972 79.7698 0.924189 79.8813 0.889345C79.9858 0.8545 80.1461 0.837078 80.3343 0.819656C80.5294 0.805718 80.7803 0.784811 81.0904 0.784811C81.404 0.777842 81.8221 0.770874 82.3448 0.770874H89.0001C89.1046 0.770874 89.1918 0.781327 89.244 0.788296L89.4531 0.82314C90.0907 0.892829 90.6029 1.16113 91.0106 1.60714C91.4183 2.05315 91.61 2.59324 91.61 3.20999C91.61 3.56889 91.5263 3.90688 91.3765 4.24835C91.2197 4.58286 91.0071 4.87556 90.7354 5.10901C90.3172 5.4923 89.6378 5.67698 88.697 5.67698H87.5297V13.6564C87.5297 14.1303 87.4948 14.5275 87.4391 14.8237C87.3833 15.1198 87.2544 15.416 87.0802 15.6843C86.8363 16.0676 86.5401 16.3638 86.1638 16.5729C85.7805 16.775 85.3623 16.8795 84.9094 16.8795C84.4564 16.8795 84.0382 16.7854 83.6654 16.5938C83.2926 16.4056 82.9685 16.1338 82.7246 15.7819C82.5504 15.5101 82.4319 15.2313 82.3762 14.9456C82.3065 14.6564 82.2716 14.2383 82.2716 13.6912V5.71182H80.8569L80.85 5.67698ZM95.4847 14.6843C95.1362 15.4718 94.7599 16.0362 94.3348 16.3777C93.9167 16.7262 93.3801 16.8934 92.7424 16.8934C92.3696 16.8934 92.0281 16.8237 91.7075 16.6913C91.3835 16.5519 91.1152 16.3673 90.8713 16.1268C90.6448 15.8829 90.4531 15.6042 90.3242 15.2906C90.1848 14.9665 90.1221 14.6285 90.1221 14.2557C90.1221 13.8271 90.2266 13.3497 90.4531 12.8863L95.4707 2.25873C95.6868 1.77091 96.0143 1.38065 96.4464 1.09841C96.8784 0.819656 97.3523 0.680278 97.8854 0.680278C98.429 0.680278 98.9134 0.819656 99.3489 1.09841C99.7775 1.39459 100.115 1.78833 100.352 2.30055L105.381 13.0466C105.59 13.4368 105.694 13.8619 105.694 14.308C105.694 14.6773 105.624 15.0153 105.471 15.3289C105.332 15.6425 105.14 15.9213 104.9 16.1582C104.656 16.4021 104.377 16.5903 104.063 16.7262C103.75 16.8621 103.401 16.9283 103.028 16.9283C102.415 16.9283 101.913 16.768 101.502 16.4404C101.091 16.1129 100.711 15.5345 100.342 14.7261H95.4638L95.4847 14.6843ZM118.367 12.6354C118.541 12.9072 118.67 13.1929 118.75 13.4856C118.83 13.7888 118.869 14.071 118.869 14.3428C118.869 14.7087 118.799 15.0501 118.677 15.3603C118.538 15.6739 118.329 15.9457 118.092 16.1756C117.848 16.4056 117.569 16.5938 117.256 16.7331C116.931 16.8725 116.593 16.9283 116.221 16.9283C115.255 16.9283 114.531 16.5206 114.032 15.7087L111.855 12.0849V14.2661C111.855 14.6494 111.785 14.9979 111.653 15.3219C111.513 15.6355 111.321 15.9143 111.095 16.1582C110.858 16.4021 110.586 16.5868 110.276 16.7157C109.963 16.8551 109.628 16.9248 109.259 16.9248C108.868 16.9248 108.485 16.8412 108.109 16.6739C107.75 16.4997 107.447 16.2802 107.203 15.977C106.785 15.4543 106.576 14.7017 106.576 13.7261V3.84764C106.576 3.26922 106.645 2.80231 106.774 2.43993C106.9 2.08103 107.123 1.76743 107.436 1.49912C107.739 1.22037 108.053 1.03918 108.377 0.941612C108.708 0.847531 109.192 0.802234 109.834 0.802234H112.039C112.694 0.802234 113.189 0.819656 113.552 0.861469C113.9 0.896314 114.255 0.959034 114.604 1.03569C115.221 1.21688 115.789 1.47822 116.301 1.83015C116.823 2.21344 117.259 2.63157 117.625 3.11939C117.994 3.60722 118.28 4.14731 118.489 4.73966C118.698 5.33202 118.803 5.94528 118.803 6.58642C118.803 7.353 118.663 8.04989 118.409 8.67709C118.141 9.30429 117.712 9.96634 117.099 10.6632L118.353 12.6494L118.367 12.6354ZM122.569 5.71531C122.106 5.71531 121.719 5.66304 121.405 5.54109C121.092 5.43655 120.82 5.26233 120.58 5.01842C120.057 4.49575 119.813 3.90339 119.813 3.27619C119.813 2.80928 119.935 2.37024 120.196 1.9521C120.461 1.53397 120.789 1.24476 121.172 1.06705C121.311 1.03221 121.451 0.962518 121.555 0.927674C121.667 0.892829 121.817 0.892829 122.008 0.857985C122.203 0.857985 122.461 0.82314 122.764 0.82314H130.709C130.813 0.82314 130.897 0.82314 130.953 0.840563L131.162 0.875407C131.796 0.962518 132.312 1.22385 132.716 1.67683C133.11 2.12981 133.308 2.65248 133.308 3.27968C133.308 3.62812 133.232 3.97657 133.078 4.31107C132.925 4.64558 132.723 4.93828 132.451 5.17173C132.033 5.55502 131.361 5.75364 130.416 5.75364H129.242V13.6982C129.242 14.1721 129.207 14.5693 129.137 14.8655C129.068 15.1686 128.953 15.4578 128.779 15.7261C128.535 16.1094 128.221 16.4056 127.848 16.6147C127.475 16.8237 127.057 16.9283 126.594 16.9283C126.141 16.9283 125.733 16.8342 125.357 16.6425C124.987 16.4509 124.67 16.1791 124.416 15.8272C124.242 15.5554 124.12 15.2766 124.054 14.9909C123.984 14.7017 123.956 14.2836 123.956 13.7365V5.72228H122.562L122.569 5.71531ZM141.675 11.8549C142.249 11.8549 142.692 11.9002 142.999 11.9873C143.312 12.0779 143.608 12.2312 143.88 12.4542C144.438 12.9525 144.716 13.5762 144.716 14.3254C144.716 14.6947 144.647 15.0501 144.49 15.3916C144.34 15.7401 144.131 16.0188 143.863 16.2627C143.723 16.3673 143.598 16.4718 143.462 16.5415C143.323 16.6112 143.183 16.6809 143.02 16.7157C142.859 16.7506 142.671 16.7854 142.455 16.8028C142.246 16.8168 141.985 16.8272 141.681 16.8272H137.57C136.964 16.8272 136.531 16.8098 136.281 16.7784C136.023 16.7436 135.782 16.6948 135.559 16.6147C134.702 16.2662 134.2 15.6216 134.04 14.6982L133.991 14.4682L133.956 14.1895L133.946 13.7783V4.39819C133.946 4.06368 133.946 3.79189 133.956 3.58282L133.991 3.06713C134.016 2.92775 134.04 2.81625 134.071 2.71868L134.183 2.38417C134.301 2.07057 134.472 1.81272 134.706 1.58275C134.939 1.35278 135.193 1.18901 135.462 1.06008C135.608 0.990394 135.741 0.948581 135.845 0.920705C135.96 0.88586 136.089 0.861469 136.246 0.851016C136.403 0.840563 136.594 0.816171 136.817 0.816171C137.044 0.802234 137.35 0.795265 137.734 0.795265H141.81C142.03 0.795265 142.204 0.805718 142.333 0.819656L142.647 0.889345L142.908 0.945096C143.466 1.08447 143.919 1.36323 144.243 1.78136C144.567 2.1995 144.73 2.68732 144.73 3.24483C144.73 3.62812 144.661 3.99399 144.511 4.33547C144.361 4.67694 144.138 4.96267 143.866 5.18219C143.629 5.39125 143.358 5.53063 143.054 5.6282C142.741 5.71879 142.344 5.76061 141.849 5.76061H139.201V6.87563H141.291C141.953 6.87563 142.469 7.04985 142.852 7.3983C143.236 7.74674 143.427 8.19972 143.427 8.75723C143.427 9.38443 143.197 9.88968 142.73 10.273C142.521 10.4228 142.312 10.5343 142.068 10.5866C141.845 10.6423 141.521 10.6702 141.103 10.6702H139.211V11.8723H141.636L141.675 11.8549ZM157.281 12.6389C157.456 12.9177 157.585 13.1964 157.665 13.4996C157.745 13.7992 157.787 14.0815 157.787 14.3533C157.787 14.7226 157.717 15.0641 157.578 15.3742C157.445 15.6878 157.264 15.9596 157.02 16.1896C156.776 16.4335 156.497 16.6077 156.184 16.7471C155.86 16.8865 155.522 16.9561 155.149 16.9561C154.187 16.9561 153.459 16.538 152.964 15.7366L150.783 12.1128V14.2871C150.783 14.6703 150.713 15.0188 150.574 15.3463C150.441 15.6599 150.26 15.9387 150.023 16.1826C149.786 16.4265 149.511 16.6007 149.197 16.7401C148.884 16.8795 148.546 16.9492 148.18 16.9492C147.783 16.9492 147.399 16.8586 147.03 16.6913C146.664 16.5171 146.361 16.2871 146.124 15.984C145.706 15.4613 145.497 14.7087 145.497 13.733V3.84764C145.497 3.26922 145.567 2.80231 145.692 2.43993C145.825 2.08103 146.041 1.76743 146.368 1.49912C146.682 1.22037 146.995 1.03918 147.319 0.941612C147.65 0.847531 148.135 0.802234 148.772 0.802234H150.968C151.63 0.802234 152.131 0.819656 152.483 0.861469C152.832 0.896314 153.191 0.959034 153.543 1.03569C154.17 1.21688 154.727 1.47822 155.233 1.83015C155.745 2.21344 156.184 2.63157 156.557 3.11939C156.919 3.60722 157.208 4.14731 157.414 4.73966C157.623 5.33202 157.727 5.94528 157.727 6.58642C157.727 7.353 157.602 8.04989 157.337 8.67709C157.072 9.30429 156.64 9.96634 156.027 10.6632L157.271 12.6494" fill="#00AEEF"/>
<path fill-rule="evenodd" clip-rule="evenodd" d="M28.9666 7.75727H28.2941C28.2105 7.17188 28.0502 6.6074 27.8411 6.07428L28.4265 5.72583C28.5589 5.65615 28.6112 5.48192 28.5415 5.37739L27.7471 3.98361C27.7018 3.86165 27.538 3.82681 27.3986 3.91392L26.8063 4.24494C26.4578 3.81287 26.0397 3.39474 25.5867 3.04629L25.9282 2.45394C25.9979 2.31456 25.97 2.15776 25.8515 2.08807L24.4717 1.30407C24.3532 1.23438 24.1929 1.29013 24.1232 1.41905L23.7748 2.01141C23.2451 1.80234 22.6841 1.64554 22.1022 1.55843V0.885934C22.1022 0.732618 21.9873 0.607178 21.8514 0.607178H20.2694C20.13 0.607178 20.0255 0.732618 20.0255 0.885934V1.56889C19.4332 1.65251 18.8756 1.80583 18.3425 2.02186L17.9941 1.42951C17.9244 1.2971 17.785 1.24483 17.6456 1.31104L16.2832 2.10549C16.1647 2.17518 16.1334 2.33198 16.2066 2.46439L16.548 3.05675C16.0951 3.41913 15.6769 3.83029 15.318 4.29024L14.7257 3.94876C14.6002 3.84423 14.4365 3.87908 14.3703 4.01845L13.6037 5.37739C13.534 5.48192 13.5897 5.65615 13.7221 5.72583L14.3075 6.07428C14.0985 6.59695 13.9451 7.15446 13.8546 7.74682H13.1577C13.0078 7.74682 12.8789 7.85135 12.8789 7.99073V9.57267C12.8789 9.71204 13.0078 9.81658 13.1577 9.81658H13.8336C13.9173 10.4089 14.0706 10.9664 14.2866 11.5031L13.7047 11.8515C13.5653 11.9212 13.5166 12.0745 13.5862 12.1999L14.3772 13.5658C14.4469 13.6808 14.6107 13.7157 14.7396 13.6355L15.3215 13.3045C15.6874 13.7645 16.102 14.1756 16.5585 14.5415L16.224 15.1199C16.1543 15.2593 16.1613 15.4091 16.2937 15.4788L17.6526 16.2698C17.7676 16.3395 17.9314 16.2837 18.001 16.1548L18.3321 15.5729C18.8617 15.7924 19.4262 15.9457 20.0151 16.0259V16.6879C20.0151 16.8482 20.1266 16.9667 20.259 16.9667H21.8583C21.9977 16.9667 22.1022 16.8482 22.1022 16.6879V16.0259C22.6946 15.9492 23.2626 15.7924 23.7992 15.5729L24.1302 16.1548C24.2069 16.2802 24.3637 16.329 24.4786 16.2663L25.8515 15.4649C25.9735 15.3952 26.0048 15.2314 25.9282 15.099L25.5971 14.531C26.0501 14.1721 26.4683 13.7575 26.8306 13.2975L27.4125 13.639C27.545 13.7192 27.7087 13.6843 27.7749 13.5693L28.5694 12.1965C28.6391 12.0815 28.5868 11.9177 28.4544 11.848L27.8725 11.5135C28.0885 10.9908 28.2418 10.4229 28.3255 9.834H28.998C29.1374 9.834 29.2767 9.72947 29.2767 9.59009V8.02209C29.2767 7.88271 29.1374 7.77818 28.998 7.77818L28.9666 7.75727ZM24.6947 9.98035L22.8235 10.0779L23.3044 11.8898L21.7364 10.8689L21.0569 12.6181L20.3774 10.8689L18.8094 11.8898L19.2868 10.0779L17.4157 9.97338L18.8687 8.78867L17.4157 7.61092L19.2868 7.50639L18.806 5.69447L20.374 6.7189L21.0534 4.96971L21.7155 6.7189L23.2835 5.69796L22.7957 7.50987L24.6598 7.61441L23.2033 8.79912L24.6563 9.98383L24.6947 9.98035Z" fill="#414042"/>
<path fill-rule="evenodd" clip-rule="evenodd" d="M45.1589 9.84152L44.5108 9.6673C44.5804 9.09585 44.5804 8.51046 44.5108 7.92508L45.1728 7.75085C45.3122 7.70904 45.4167 7.56966 45.3819 7.43725L44.9637 5.91106C44.9289 5.77866 44.7895 5.702 44.6501 5.74381L43.9881 5.91803C43.7616 5.37446 43.4654 4.8727 43.117 4.40927L43.5978 3.95629C43.7024 3.85175 43.7163 3.67753 43.6222 3.59391L42.5072 2.47888C42.4096 2.37435 42.2424 2.38829 42.1344 2.4963L41.6605 2.97716C41.1936 2.62871 40.6848 2.3395 40.1517 2.10605L40.3259 1.444C40.3677 1.29068 40.2911 1.14434 40.1656 1.10949L38.6186 0.677421C38.4792 0.642576 38.3398 0.736657 38.305 0.886488L38.1307 1.54853C37.5593 1.47884 36.9809 1.47884 36.3885 1.54853L36.2143 0.886488C36.1794 0.736657 36.0401 0.642576 35.9007 0.677421L34.3675 1.09555C34.2351 1.1304 34.1585 1.27675 34.2003 1.42309L34.3745 2.08514C33.8344 2.31511 33.3292 2.60781 32.8692 2.95625L32.3814 2.45449C32.2769 2.34996 32.1026 2.3395 32.012 2.43707L30.897 3.55209C30.7925 3.64966 30.8064 3.81691 30.9144 3.92493L31.3674 4.40578C31.019 4.8727 30.7228 5.38143 30.4963 5.91455L29.8343 5.74033C29.6949 5.69851 29.5416 5.77517 29.5067 5.90061L29.0956 7.43377C29.0607 7.5383 29.1478 7.67768 29.2942 7.74737L29.9562 7.92159C29.8865 8.4791 29.8865 9.07146 29.9562 9.66382L29.3046 9.83804C29.1652 9.87288 29.0712 10.0123 29.106 10.1168L29.5241 11.65C29.559 11.7824 29.7088 11.859 29.8552 11.8172L30.5068 11.643C30.7402 12.19 31.0294 12.6953 31.3779 13.1552L30.9179 13.6535C30.8064 13.758 30.796 13.9323 30.8935 14.0229L32.0086 15.1483C32.1061 15.2424 32.2734 15.232 32.3814 15.1239L32.8553 14.6501C33.3222 14.9985 33.8309 15.2947 34.3675 15.5281L34.1933 16.1728C34.1585 16.3191 34.2281 16.4655 34.3606 16.5003L35.8937 16.9184C36.0192 16.9533 36.1585 16.8836 36.1969 16.7094L36.3711 16.0822C36.9425 16.1519 37.5279 16.1519 38.1203 16.0822L38.2945 16.7442C38.3293 16.8906 38.4687 16.9881 38.5976 16.9533L40.1308 16.5352C40.2597 16.5003 40.3329 16.3609 40.2946 16.2076L40.1552 15.5665C40.7023 15.333 41.2005 15.0368 41.6674 14.6954L42.1378 15.1588C42.2424 15.2633 42.4166 15.2773 42.5072 15.1832L43.6222 14.0542C43.7268 13.9636 43.7163 13.7964 43.6083 13.6884L43.1309 13.2005C43.4794 12.7371 43.7686 12.2249 44.002 11.6918L44.6466 11.866C44.793 11.9008 44.9393 11.8311 44.9742 11.6987L45.3714 10.1656C45.4063 10.0262 45.3157 9.88682 45.1693 9.85198L45.1589 9.84152ZM40.2911 11.2005L38.5071 10.6255L38.3084 12.4897L37.2283 10.974L35.9739 12.3677V10.4861L34.1445 10.8764L35.2421 9.36067L33.5347 8.59409L35.3118 8.01219L34.371 6.38495L36.1481 6.96337L36.3502 5.09919L37.4547 6.5975L38.7091 5.20372L38.7196 7.08532L40.5524 6.70203L39.4548 8.20035L41.1622 8.96693L39.3747 9.54883L40.3155 11.1726L40.2911 11.2005Z" fill="#414042"/>
</svg>
