<svg width="71" height="45" viewBox="0 0 71 45" fill="none" xmlns="http://www.w3.org/2000/svg">
<path fill-rule="evenodd" clip-rule="evenodd" d="M25.9336 40.0074H44.8798V5.18848H25.9336V40.0074Z" fill="#FF5F00"/>
<path fill-rule="evenodd" clip-rule="evenodd" d="M27.1351 22.6054C27.1297 15.8119 30.1798 9.39366 35.4053 5.19889C26.0026 -2.35786 12.3902 -0.688558 5.00116 8.92621C-2.38786 18.5416 -0.756078 32.4612 8.64605 40.018C16.4982 46.328 27.5532 46.328 35.4053 40.018C30.178 35.822 27.1279 29.4006 27.1351 22.6054Z" fill="#EB001B"/>
<path fill-rule="evenodd" clip-rule="evenodd" d="M70.4417 22.607C70.4417 34.8357 60.7466 44.7488 48.7883 44.7488C43.9344 44.7488 39.222 43.0807 35.4062 40.0134C44.8084 32.4573 46.4408 18.5371 39.0511 8.92173C37.9859 7.53537 36.762 6.28371 35.4062 5.19381C44.8072 -2.36413 58.4196 -0.697918 65.811 8.91558C68.8117 12.8194 70.4429 17.6415 70.4417 22.607Z" fill="#F79E1B"/>
</svg>
