<svg width="63" height="62" viewBox="0 0 63 62" fill="none" xmlns="http://www.w3.org/2000/svg">
<g clip-path="url(#clip0)">
<path d="M25.8408 33.1675H36.7393V36.7417H25.8408V33.1675Z" fill="#FC9D3E"/>
<path d="M50.5898 36.7417H40.3721V38.5288C40.3721 39.5164 39.5594 40.3159 38.5557 40.3159H24.0244C23.0207 40.3159 22.208 39.5164 22.208 38.5288V36.7417H11.9902C9.64169 36.7417 7.56465 35.2688 6.82106 33.0768L0.290039 13.7964V52.8257C0.290039 55.7819 2.73462 58.187 5.73926 58.187H56.8408C59.8455 58.187 62.29 55.7819 62.29 52.8257V13.7978L55.7585 33.0768C55.0154 35.2688 52.9384 36.7417 50.5898 36.7417Z" fill="#FC9D3E"/>
<path d="M38.5559 4.57373H24.0246C21.02 4.57373 18.5754 6.97888 18.5754 9.93506V11.7222H3.41553L10.2663 31.9458C10.5146 32.677 11.2081 33.1675 11.9905 33.1675H22.2082V31.3804C22.2082 30.3928 23.0209 29.5933 24.0246 29.5933H38.5559C39.5596 29.5933 40.3723 30.3928 40.3723 31.3804V33.1675H50.5901C51.3724 33.1675 52.0659 32.677 52.3142 31.9458L59.1655 11.7222H44.0051V9.93506C44.0051 6.97888 41.5605 4.57373 38.5559 4.57373ZM22.2082 11.7222V9.93506C22.2082 8.94889 23.0223 8.14795 24.0246 8.14795H38.5559C39.5582 8.14795 40.3723 8.94889 40.3723 9.93506V11.7222H22.2082Z" fill="#FC9D3E"/>
</g>
<defs>
<clipPath id="clip0">
<rect x="0.290039" y="0.880371" width="62" height="61" fill="white"/>
</clipPath>
</defs>
</svg>
